6_vcd_traces/vending_machine.vcd
$date
	Fri Feb 27 01:26:19 2026
$end
$version
	Icarus Verilog
$end
$timescale
	1ps
$end
$scope module tb_vending_machine $end
$var wire 8 ! change_out [7:0] $end
$var wire 2 " beverage_out [1:0] $end
$var parameter 32 # M $end
$var parameter 32 $ N $end
$var reg 2 % button_in [1:0] $end
$var reg 1 & clk $end
$var reg 3 ' coin_in [2:0] $end
$var reg 1 ( rst $end
$var integer 32 ) fail_cnt [31:0] $end
$var integer 32 * pass_cnt [31:0] $end
$scope module DUT $end
$var wire 2 + button_in [1:0] $end
$var wire 1 & clk $end
$var wire 3 , coin_in [2:0] $end
$var wire 1 ( rst $end
$var parameter 32 - M $end
$var parameter 32 . MIN_COST $end
$var parameter 32 / N $end
$var parameter 32 0 SODA_COST $end
$var parameter 32 1 WATER_COST $end
$var reg 2 2 beverage_out [1:0] $end
$var reg 8 3 change_cnt [7:0] $end
$var reg 8 4 change_out [7:0] $end
$var reg 8 5 credit [7:0] $end
$var reg 8 6 dispense_cnt [7:0] $end
$var reg 3 7 next_state [2:0] $end
$var reg 2 8 sel_beverage [1:0] $end
$var reg 8 9 sel_cost [7:0] $end
$var reg 3 : state [2:0] $end
$scope function coin_value $end
$upscope $end
$upscope $end
$scope task check $end
$upscope $end
$scope task do_reset $end
$upscope $end
$scope task insert_coin $end
$upscope $end
$scope task press_button $end
$upscope $end
$scope task wait_transaction_done $end
$upscope $end
$upscope $end
$enddefinitions $end
$comment Show the parameter values. $end
$dumpall
b11110 1
b110010 0
b101 /
b11110 .
b11 -
b101 $
b11 #
$end
#0
$dumpvars
b0 :
b0 9
b0 8
b0 7
b0 6
b0 5
b0 4
b0 3
b0 2
b0 ,
b0 +
b0 *
b0 )
1(
b0 '
0&
b0 %
b0 "
b0 !
$end
#5000
1&
#10000
0&
#15000
1&
#20000
0&
#25000
0(
1&
#30000
0&
#35000
1&
#40000
0&
#45000
b110010 5
b1 7
b11 '
b11 ,
1&
#50000
0&
#55000
b1 :
b0 7
b0 '
b0 ,
1&
#60000
0&
#65000
b11110 9
b1 8
b10100 5
b0 :
b0 7
b1 %
b1 +
1&
#70000
0&
#75000
b0 %
b0 +
1&
#80000
0&
#85000
1&
#90000
0&
#95000
1&
#100000
0&
#105000
1&
#110000
0&
#115000
1&
#120000
0&
#125000
1&
#130000
0&
#135000
1&
#140000
0&
#145000
1&
#150000
0&
#155000
1&
#160000
0&
#165000
1&
#170000
0&
#175000
1&
#180000
0&
#185000
1&
#190000
0&
#195000
1&
#200000
0&
#205000
b101000 5
b1 7
b10 '
b10 ,
1&
#210000
0&
#215000
b1 :
b0 7
b0 '
b0 ,
1&
#220000
0&
#225000
b110010 5
b0 :
b1 7
b1 '
b1 ,
1&
#230000
0&
#235000
b1 :
b0 7
b0 '
b0 ,
1&
#240000
0&
#245000
b110010 9
b10 8
b0 5
b0 :
b0 7
b10 %
b10 +
1&
#250000
0&
#255000
b0 %
b0 +
1&
#260000
0&
#265000
1&
#270000
0&
#275000
1&
#280000
0&
#285000
1&
#290000
0&
#295000
b1 *
1&
#300000
0&
#305000
b1 %
b1 +
1&
#310000
0&
#315000
b0 %
b0 +
1&
#320000
0&
#325000
1&
#330000
0&
#335000
1&
#340000
0&
#345000
1&
#350000
0&
#355000
1&
#360000
0&
#365000
1&
#370000
0&
#375000
1&
#380000
0&
#385000
1&
#390000
0&
#395000
1&
#400000
0&
#405000
1&
#410000
0&
#415000
1&
#420000
0&
#425000
1&
#430000
0&
#435000
1&
#440000
0&
#445000
b1100100 5
b1 7
b100 '
b100 ,
1&
#450000
0&
#455000
b1 :
b0 7
b0 '
b0 ,
1&
#460000
0&
#465000
b110010 5
b0 :
b0 7
b10 %
b10 +
1&
#470000
0&
#475000
b0 %
b0 +
1&
#480000
0&
#485000
1&
#490000
0&
#495000
1&
#500000
0&
#505000
1&
#510000
0&
#515000
1&
#520000
0&
#525000
1&
#530000
0&
#535000
1&
#540000
0&
#545000
1&
#550000
0&
#555000
1&
#560000
0&
#565000
1&
#570000
0&
#575000
1&
#580000
0&
#585000
1&
#590000
0&
#595000
1&
#600000
0&
#605000
1&
#610000
0&
#615000
1&
#620000
0&
#625000
b1 %
b1 +
1&
#630000
0&
#635000
b0 %
b0 +
1&
#640000
0&
#645000
1&
#650000
0&
#655000
1&
#660000
0&
#665000
1&
#670000
0&
#675000
1&
#680000
0&
#685000
1&
#690000
0&
#695000
1&
#700000
0&
#705000
1&
#710000
0&
#715000
1&
#720000
0&
#725000
1&
#730000
0&
#735000
1&
#740000
0&
#745000
1&
#750000
0&
#755000
1&
#760000
0&
#765000
b11111010 5
b1 7
b101 '
b101 ,
1&
#770000
0&
#775000
b1 :
b0 7
b0 '
b0 ,
1&
#780000
0&
#785000
b11110 9
b1 8
b11011100 5
b0 :
b0 7
b1 %
b1 +
1&
#790000
0&
#795000
b0 %
b0 +
1&
#800000
0&
#805000
1&
#810000
0&
#815000
1&
#820000
0&
#825000
1&
#830000
0&
#835000
1&
#840000
0&
#845000
1&
#850000
0&
#855000
1&
#860000
0&
#865000
1&
#870000
0&
#875000
1&
#880000
0&
#885000
1&
#890000
0&
#895000
1&
#900000
0&
#905000
1&
#910000
0&
#915000
1&
#920000
0&
#925000
b10 %
b10 +
1&
#930000
0&
#935000
b0 %
b0 +
1&
#940000
0&
#945000
1&
#950000
0&
#955000
1&
#960000
0&
#965000
1&
#970000
0&
#975000
1&
#980000
0&
#985000
1&
#990000
0&
#995000
1&
#1000000
0&
#1005000
1&
#1010000
0&
#1015000
1&
#1020000
0&
#1025000
1&
#1030000
0&
#1035000
1&
#1040000
0&
#1045000
1&
#1050000
0&
#1055000
1&
#1060000
0&
#1065000
b10 %
b10 +
1&
#1070000
0&
#1075000
b0 %
b0 +
1&
#1080000
0&
#1085000
1&
#1090000
0&
#1095000
1&
#1100000
0&
#1105000
1&
#1110000
0&
#1115000
1&
#1120000
0&
#1125000
1&
#1130000
0&
#1135000
1&
#1140000
0&
#1145000
1&
#1150000
0&
#1155000
1&
#1160000
0&
#1165000
1&
#1170000
0&
#1175000
1&
#1180000
0&
#1185000
1&
#1190000
0&
#1195000
1&
#1200000
0&
#1205000
b10 %
b10 +
1&
#1210000
0&
#1215000
b0 %
b0 +
1&
#1220000
0&
#1225000
1&
#1230000
0&
#1235000
1&
#1240000
0&
#1245000
1&
#1250000
0&
#1255000
1&
#1260000
0&
#1265000
1&
#1270000
0&
#1275000
1&
#1280000
0&
#1285000
1&
#1290000
0&
#1295000
1&
#1300000
0&
#1305000
1&
#1310000
0&
#1315000
1&
#1320000
0&
#1325000
1&
#1330000
0&
#1335000
1&
#1340000
0&
#1345000
b1 %
b1 +
1&
#1350000
0&
#1355000
b0 %
b0 +
1&
#1360000
0&
#1365000
1&
#1370000
0&
#1375000
1&
#1380000
0&
#1385000
1&
#1390000
0&
#1395000
b10 *
1&
#1400000
0&
#1405000
b110 '
b110 ,
1&
#1410000
0&
#1415000
b0 '
b0 ,
1&
